CMD value is: G
FS value is: 4
ODR value is: 1600
FAKE value NOT FOUND
Data Set 2: 0.01
Entry 0: 15 - 0
Entry 1: 15 - 0.1
Entry 2: 16 - 0.2
Lambda called with global variable set to TRUE and function parameter: 10
Infinite loop: 0
Infinite loop: 1
Infinite loop: 2
Infinite loop: 3
Infinite loop: 4
Infinite loop: 5
Infinite loop: 6
Infinite loop: 7
Infinite loop: 8
Infinite loop: 9
Infinite loop: 10
Infinite loop: 11
Infinite loop: 12
Infinite loop: 13
Infinite loop: 14
Infinite loop: 15
Infinite loop: 16
Infinite loop: 17
Infinite loop: 18
Infinite loop: 19
Infinite loop: 20
Infinite loop: 21
Infinite loop: 22
Infinite loop: 23
Infinite loop: 24
Infinite loop: 25
Infinite loop: 26
Infinite loop: 27
Infinite loop: 28
Infinite loop: 29
Infinite loop: 30
Infinite loop: 31
Infinite loop: 32
Infinite loop: 33
Infinite loop: 34
Infinite loop: 35
Infinite loop: 36
Infinite loop: 37
Infinite loop: 38
Infinite loop: 39
Infinite loop: 40
Infinite loop: 41
Infinite loop: 42
Infinite loop: 43
Infinite loop: 44
Infinite loop: 45
Infinite loop: 46
Infinite loop: 47
Infinite loop: 48
Infinite loop: 49
Infinite loop: 50
Infinite loop: 51
Infinite loop: 52
Infinite loop: 53
Infinite loop: 54
Infinite loop: 55
Infinite loop: 56
Infinite loop: 57
Infinite loop: 58
Infinite loop: 59
Infinite loop: 60
Infinite loop: 61
Infinite loop: 62
Infinite loop: 63
Infinite loop: 64
Infinite loop: 65
Infinite loop: 66
Infinite loop: 67
Infinite loop: 68
Infinite loop: 69
Infinite loop: 70
Infinite loop: 71
Infinite loop: 72
Infinite loop: 73
Infinite loop: 74
Infinite loop: 75
Infinite loop: 76
Infinite loop: 77
Infinite loop: 78
Infinite loop: 79
Infinite loop: 80
Infinite loop: 81
Infinite loop: 82
Infinite loop: 83
Infinite loop: 84
Infinite loop: 85
Infinite loop: 86
Infinite loop: 87
Infinite loop: 88
Infinite loop: 89
Infinite loop: 90
Infinite loop: 91
Infinite loop: 92
Infinite loop: 93
Infinite loop: 94
Infinite loop: 95
Infinite loop: 96
Infinite loop: 97
Infinite loop: 98
Infinite loop: 99
Infinite loop: 100
Infinite loop: 101
Infinite loop: 102
Infinite loop: 103
Infinite loop: 104
Infinite loop: 105
Infinite loop: 106
Infinite loop: 107
Infinite loop: 108
Infinite loop: 109
Infinite loop: 110
Infinite loop: 111
Infinite loop: 112
Infinite loop: 113
Infinite loop: 114
Infinite loop: 115
Infinite loop: 116
Infinite loop: 117
Infinite loop: 118
Infinite loop: 119
Infinite loop: 120
Infinite loop: 121
Infinite loop: 122
Infinite loop: 123
Infinite loop: 124
Infinite loop: 125
Infinite loop: 126
Infinite loop: 127
Infinite loop: 128
Infinite loop: 129
Infinite loop: 130
Infinite loop: 131
Infinite loop: 132
Infinite loop: 133
Infinite loop: 134
Infinite loop: 135
Infinite loop: 136
Infinite loop: 137
Infinite loop: 138
Infinite loop: 139
Infinite loop: 140
Infinite loop: 141
Infinite loop: 142
Infinite loop: 143
Infinite loop: 144
Infinite loop: 145
Infinite loop: 146
Infinite loop: 147
Infinite loop: 148
Infinite loop: 149
Infinite loop: 150
Infinite loop: 151
Infinite loop: 152
Infinite loop: 153
Infinite loop: 154
Infinite loop: 155
Infinite loop: 156
Infinite loop: 157
Infinite loop: 158
Infinite loop: 159
Infinite loop: 160
Infinite loop: 161
Infinite loop: 162
Infinite loop: 163
Infinite loop: 164
Infinite loop: 165
Infinite loop: 166
Infinite loop: 167
Infinite loop: 168
Infinite loop: 169
Infinite loop: 170
Infinite loop: 171
Infinite loop: 172
Infinite loop: 173
Infinite loop: 174
Infinite loop: 175
Infinite loop: 176
Infinite loop: 177
Infinite loop: 178
Infinite loop: 179
Infinite loop: 180
Infinite loop: 181
Infinite loop: 182
Infinite loop: 183
Infinite loop: 184
Infinite loop: 185
Infinite loop: 186
Infinite loop: 187
Infinite loop: 188
Infinite loop: 189
Infinite loop: 190
Infinite loop: 191
Infinite loop: 192
Infinite loop: 193
Infinite loop: 194
Infinite loop: 195
Infinite loop: 196
Infinite loop: 197
Infinite loop: 198
Infinite loop: 199
Infinite loop: 200
Infinite loop: 201
Infinite loop: 202
Infinite loop: 203
Infinite loop: 204
Infinite loop: 205
Infinite loop: 206
Infinite loop: 207
Infinite loop: 208
Infinite loop: 209
Infinite loop: 210
Infinite loop: 211
Infinite loop: 212
Infinite loop: 213
Infinite loop: 214
Infinite loop: 215
Infinite loop: 216
Infinite loop: 217
Infinite loop: 218
Infinite loop: 219
Infinite loop: 220
Infinite loop: 221
Infinite loop: 222
Infinite loop: 223
Infinite loop: 224
Infinite loop: 225
Infinite loop: 226
Infinite loop: 227
Infinite loop: 228
Infinite loop: 229
Infinite loop: 230
Infinite loop: 231
Infinite loop: 232
Infinite loop: 233
Infinite loop: 234
Infinite loop: 235
Infinite loop: 236
Infinite loop: 237
Infinite loop: 238
Infinite loop: 239
Infinite loop: 240
Infinite loop: 241
Infinite loop: 242
Infinite loop: 243
Infinite loop: 244
Infinite loop: 245
Infinite loop: 246
Infinite loop: 247
Infinite loop: 248
Infinite loop: 249
Infinite loop: 250
Infinite loop: 251
Infinite loop: 252
Infinite loop: 253
Infinite loop: 254
Infinite loop: 255
Infinite loop: 256
Infinite loop: 257
Infinite loop: 258
Infinite loop: 259
Infinite loop: 260
Infinite loop: 261
Infinite loop: 262
Infinite loop: 263
Infinite loop: 264
Infinite loop: 265
Infinite loop: 266
Infinite loop: 267
Infinite loop: 268
Infinite loop: 269
Infinite loop: 270
Infinite loop: 271
Infinite loop: 272
Infinite loop: 273
Infinite loop: 274
Infinite loop: 275
Infinite loop: 276
Infinite loop: 277
Infinite loop: 278
Infinite loop: 279
Infinite loop: 280
Infinite loop: 281
Infinite loop: 282
Infinite loop: 283
Infinite loop: 284
Infinite loop: 285
Infinite loop: 286
Infinite loop: 287
Infinite loop: 288
Infinite loop: 289
Infinite loop: 290
Infinite loop: 291
Infinite loop: 292
Infinite loop: 293
Infinite loop: 294
Infinite loop: 295
Infinite loop: 296
Infinite loop: 297
Infinite loop: 298
Infinite loop: 299
Infinite loop: 300
Infinite loop: 301
Infinite loop: 302
Infinite loop: 303
Infinite loop: 304
Infinite loop: 305
Infinite loop: 306
Infinite loop: 307
Infinite loop: 308
Infinite loop: 309
Infinite loop: 310
Infinite loop: 311
Infinite loop: 312
Infinite loop: 313
Infinite loop: 314
Infinite loop: 315
Infinite loop: 316
Infinite loop: 317
Infinite loop: 318
Infinite loop: 319
Infinite loop: 320
Infinite loop: 321
Infinite loop: 322
Infinite loop: 323
Infinite loop: 324
Infinite loop: 325
Infinite loop: 326
Infinite loop: 327
Infinite loop: 328
Infinite loop: 329
Infinite loop: 330
Infinite loop: 331
Infinite loop: 332
Infinite loop: 333
Infinite loop: 334
Infinite loop: 335
Infinite loop: 336
Infinite loop: 337
Infinite loop: 338
Infinite loop: 339
Infinite loop: 340
Infinite loop: 341
Infinite loop: 342
Infinite loop: 343
Infinite loop: 344
Infinite loop: 345
Infinite loop: 346
Infinite loop: 347
Infinite loop: 348
Infinite loop: 349
Infinite loop: 350
Infinite loop: 351
Infinite loop: 352
Infinite loop: 353
Infinite loop: 354
Infinite loop: 355
Infinite loop: 356
Infinite loop: 357
Infinite loop: 358
Infinite loop: 359
Infinite loop: 360
Infinite loop: 361
Infinite loop: 362
Infinite loop: 363
Infinite loop: 364
Infinite loop: 365
Infinite loop: 366
Infinite loop: 367
Infinite loop: 368
Infinite loop: 369
Infinite loop: 370
Infinite loop: 371
Infinite loop: 372
Infinite loop: 373
Infinite loop: 374
Infinite loop: 375
Infinite loop: 376
Infinite loop: 377
Infinite loop: 378
Infinite loop: 379
Infinite loop: 380
Infinite loop: 381
Infinite loop: 382
Infinite loop: 383
Infinite loop: 384
Infinite loop: 385
Infinite loop: 386
Infinite loop: 387
Infinite loop: 388
Infinite loop: 389
Infinite loop: 390
Infinite loop: 391
Infinite loop: 392
Infinite loop: 393
Infinite loop: 394
Infinite loop: 395
Infinite loop: 396
Infinite loop: 397
Infinite loop: 398
Infinite loop: 399
Infinite loop: 400
Infinite loop: 401
Infinite loop: 402
Infinite loop: 403
Infinite loop: 404
Infinite loop: 405
Infinite loop: 406
Infinite loop: 407
Infinite loop: 408
Infinite loop: 409
Infinite loop: 410
Infinite loop: 411
Infinite loop: 412
Infinite loop: 413
Infinite loop: 414
Infinite loop: 415
Infinite loop: 416
Infinite loop: 417
Infinite loop: 418
Infinite loop: 419
Infinite loop: 420
Infinite loop: 421
Infinite loop: 422
Infinite loop: 423
Infinite loop: 424
Infinite loop: 425
Infinite loop: 426
Infinite loop: 427
Infinite loop: 428
Infinite loop: 429
Infinite loop: 430
Infinite loop: 431
Infinite loop: 432
Infinite loop: 433
Infinite loop: 434
Infinite loop: 435
Infinite loop: 436
Infinite loop: 437
Infinite loop: 438
Infinite loop: 439
Infinite loop: 440
Infinite loop: 441
Infinite loop: 442
Infinite loop: 443
Infinite loop: 444
Infinite loop: 445
Infinite loop: 446
Infinite loop: 447
Infinite loop: 448
Infinite loop: 449
Infinite loop: 450
Infinite loop: 451
Infinite loop: 452
Infinite loop: 453
Infinite loop: 454
Infinite loop: 455
Infinite loop: 456
Infinite loop: 457
Infinite loop: 458
Infinite loop: 459
Infinite loop: 460
Infinite loop: 461
Infinite loop: 462
Infinite loop: 463
Infinite loop: 464
Infinite loop: 465
Infinite loop: 466
Infinite loop: 467
Infinite loop: 468
Infinite loop: 469
Infinite loop: 470
Infinite loop: 471
Infinite loop: 472
Infinite loop: 473
Infinite loop: 474
Infinite loop: 475
Infinite loop: 476
Infinite loop: 477
Infinite loop: 478
Infinite loop: 479
Infinite loop: 480
Infinite loop: 481
Infinite loop: 482
Infinite loop: 483
Infinite loop: 484
Infinite loop: 485
Infinite loop: 486
Infinite loop: 487
Infinite loop: 488
Infinite loop: 489
Infinite loop: 490
Infinite loop: 491
Infinite loop: 492
Infinite loop: 493
Infinite loop: 494
Infinite loop: 495
Infinite loop: 496
Infinite loop: 497
Infinite loop: 498
Infinite loop: 499
Infinite loop: 500
Infinite loop: 501
Infinite loop: 502
Infinite loop: 503
Infinite loop: 504
Infinite loop: 505
Infinite loop: 506
Infinite loop: 507
Infinite loop: 508
Infinite loop: 509
Infinite loop: 510
Infinite loop: 511
Infinite loop: 512
Infinite loop: 513
Infinite loop: 514
Infinite loop: 515
Infinite loop: 516
Infinite loop: 517
Infinite loop: 518
Infinite loop: 519
Infinite loop: 520
Infinite loop: 521
Infinite loop: 522
Infinite loop: 523
Infinite loop: 524
Infinite loop: 525
Infinite loop: 526
Infinite loop: 527
Infinite loop: 528
Infinite loop: 529
Infinite loop: 530
Infinite loop: 531
Infinite loop: 532
Infinite loop: 533
Infinite loop: 534
Infinite loop: 535
Infinite loop: 536
Infinite loop: 537
Infinite loop: 538
Infinite loop: 539
Infinite loop: 540
Infinite loop: 541
Infinite loop: 542
Infinite loop: 543
Infinite loop: 544
Infinite loop: 545
Infinite loop: 546
Infinite loop: 547
Infinite loop: 548
Infinite loop: 549
Infinite loop: 550
Infinite loop: 551
Infinite loop: 552
Infinite loop: 553
Infinite loop: 554
Infinite loop: 555
Infinite loop: 556
Infinite loop: 557
Infinite loop: 558
Infinite loop: 559
Infinite loop: 560
Infinite loop: 561
Infinite loop: 562
Infinite loop: 563
Infinite loop: 564
Infinite loop: 565
Infinite loop: 566
Infinite loop: 567
Infinite loop: 568
Infinite loop: 569
Infinite loop: 570
Infinite loop: 571
Infinite loop: 572
Infinite loop: 573
Infinite loop: 574
Infinite loop: 575
Infinite loop: 576
Infinite loop: 577
Infinite loop: 578
Infinite loop: 579
Infinite loop: 580
Infinite loop: 581
Infinite loop: 582
Infinite loop: 583
Infinite loop: 584
Infinite loop: 585
Infinite loop: 586
Infinite loop: 587
Infinite loop: 588
Infinite loop: 589
Infinite loop: 590
Infinite loop: 591
Infinite loop: 592
Infinite loop: 593
Infinite loop: 594
Infinite loop: 595
Infinite loop: 596
Infinite loop: 597
Infinite loop: 598
Infinite loop: 599
Infinite loop: 600
Infinite loop: 601
Infinite loop: 602
Infinite loop: 603
Infinite loop: 604
Infinite loop: 605
Infinite loop: 606
Infinite loop: 607
Infinite loop: 608
Infinite loop: 609
Infinite loop: 610
Infinite loop: 611
Infinite loop: 612
Infinite loop: 613
Infinite loop: 614
Infinite loop: 615
Infinite loop: 616
Infinite loop: 617
Infinite loop: 618
Infinite loop: 619
Infinite loop: 620
Infinite loop: 621
Infinite loop: 622
Infinite loop: 623
Infinite loop: 624
Infinite loop: 625
Infinite loop: 626
Infinite loop: 627
Infinite loop: 628
Infinite loop: 629
Infinite loop: 630
Infinite loop: 631
Infinite loop: 632
Infinite loop: 633
Infinite loop: 634
Infinite loop: 635
Infinite loop: 636
Infinite loop: 637
Infinite loop: 638
Infinite loop: 639
Infinite loop: 640
Infinite loop: 641
Infinite loop: 642
Infinite loop: 643
Infinite loop: 644
Infinite loop: 645
Infinite loop: 646
Infinite loop: 647
Infinite loop: 648
Infinite loop: 649
Infinite loop: 650
Infinite loop: 651
Infinite loop: 652
Infinite loop: 653
Infinite loop: 654
Infinite loop: 655
Infinite loop: 656
Infinite loop: 657
Infinite loop: 658
Infinite loop: 659
Infinite loop: 660
Infinite loop: 661
Infinite loop: 662
Infinite loop: 663
Infinite loop: 664
Infinite loop: 665
Infinite loop: 666
Infinite loop: 667
Infinite loop: 668
Infinite loop: 669
Infinite loop: 670
Infinite loop: 671
Infinite loop: 672
Infinite loop: 673
Infinite loop: 674
Infinite loop: 675
Infinite loop: 676
Infinite loop: 677
Infinite loop: 678
Infinite loop: 679
Infinite loop: 680
Infinite loop: 681
Infinite loop: 682
Infinite loop: 683
Infinite loop: 684
Infinite loop: 685
Infinite loop: 686
Infinite loop: 687
Infinite loop: 688
Infinite loop: 689
Infinite loop: 690
Infinite loop: 691
Infinite loop: 692
Infinite loop: 693
Infinite loop: 694
Infinite loop: 695
Infinite loop: 696
Infinite loop: 697
Infinite loop: 698
Infinite loop: 699
Infinite loop: 700
Infinite loop: 701
Infinite loop: 702
Infinite loop: 703
Infinite loop: 704
Infinite loop: 705
Infinite loop: 706
Infinite loop: 707
Infinite loop: 708
Infinite loop: 709
Infinite loop: 710
Infinite loop: 711
Infinite loop: 712
Infinite loop: 713
Infinite loop: 714
Infinite loop: 715
Infinite loop: 716
Infinite loop: 717
Infinite loop: 718
Infinite loop: 719
Infinite loop: 720
Infinite loop: 721
Infinite loop: 722
Infinite loop: 723
Infinite loop: 724
Infinite loop: 725
Infinite loop: 726
Infinite loop: 727
Infinite loop: 728
Infinite loop: 729
Infinite loop: 730
Infinite loop: 731
Infinite loop: 732
Infinite loop: 733
Infinite loop: 734
Infinite loop: 735
Infinite loop: 736
Infinite loop: 737
Infinite loop: 738
Infinite loop: 739
Infinite loop: 740
Infinite loop: 741
Infinite loop: 742
Infinite loop: 743
Infinite loop: 744
Infinite loop: 745
Infinite loop: 746
Infinite loop: 747
Infinite loop: 748
Infinite loop: 749
Infinite loop: 750
Infinite loop: 751
Infinite loop: 752
Infinite loop: 753
Infinite loop: 754
Infinite loop: 755
Infinite loop: 756
Infinite loop: 757
Infinite loop: 758
Infinite loop: 759
Infinite loop: 760
Infinite loop: 761
Infinite loop: 762
Infinite loop: 763
Infinite loop: 764
Infinite loop: 765
Infinite loop: 766
Infinite loop: 767
Infinite loop: 768
Infinite loop: 769
Infinite loop: 770
Infinite loop: 771
Infinite loop: 772
Infinite loop: 773
Infinite loop: 774
Infinite loop: 775
Infinite loop: 776
Infinite loop: 777
Infinite loop: 778
Infinite loop: 779
Infinite loop: 780
Infinite loop: 781
Infinite loop: 782
Infinite loop: 783
Infinite loop: 784
Infinite loop: 785
Infinite loop: 786
Infinite loop: 787
Infinite loop: 788
Infinite loop: 789
